…
A single fit can check to make sure it looks ok.

``` r
# look at output object
fits
#> # A tibble: 60 x 6
#>           flux growth.temp     process curve_id              data
#>          <chr>       <dbl>       <chr>    <dbl>            <list>
#>  1 respiration          20 acclimation        1 <tibble [12 x 3]>
#>  2 respiration          20 acclimation        2 <tibble [12 x 3]>
#>  3 respiration          23 acclimation        3 <tibble [12 x 3]>
#>  4 respiration          27 acclimation        4  <tibble [9 x 3]>
#>  5 respiration          27 acclimation        5 <tibble [12 x 3]>
#>  6 respiration          30 acclimation        6 <tibble [12 x 3]>
#>  7 respiration          30 acclimation        7 <tibble [12 x 3]>
#>  8 respiration          33 acclimation        8 <tibble [10 x 3]>
#>  9 respiration          33 acclimation        9  <tibble [8 x 3]>
#> 10 respiration          20 acclimation       10 <tibble [10 x 3]>
#> # ... with 50 more rows, and 1 more variables: fit <list>
…
# get params
params <- fits %>%
  unnest(fit %>% map(tidy))

# get predictions
preds <- fits %>%
  unnest(fit %>% map(augment))
```

Looking at **info** allows us to see if all the models converged.

``` r
info
#> # A tibble: 60 x 14
#>           flux growth.temp     process curve_id              data
#>          <chr>       <dbl>       <chr>    <dbl>            <list>
#>  1 respiration          20 acclimation        1 <tibble [12 x 3]>
#>  2 respiration          20 acclimation        2 <tibble [12 x 3]>
#>  3 respiration          23 acclimation        3 <tibble [12 x 3]>
#>  4 respiration          27 acclimation        4  <tibble [9 x 3]>
#>  5 respiration          27 acclimation        5 <tibble [12 x 3]>
#>  6 respiration          30 acclimation        6 <tibble [12 x 3]>
#>  7 respiration          30 acclimation        7 <tibble [12 x 3]>
#>  8 respiration          33 acclimation        8 <tibble [10 x 3]>
#>  9 respiration          33 acclimation        9  <tibble [8 x 3]>
#> 10 respiration          20 acclimation       10 <tibble [10 x 3]>
#> # ... with 50 more rows, and 9 more variables: fit <list>, sigma <dbl>,
#> #   isConv <lgl>, finTol <dbl>, logLik <dbl>, AIC <dbl>, BIC <dbl>,
#> #   deviance <dbl>, df.residual <int>
```
…
